[{
    "Name": "Water Chestnut - Canned",
    "Type": 1,
    "Quantity": 1,
    "Cost": 1,
    "Selling": 1
  }, {
    "Name": "Macaroons - Two Bite Choc",
    "Type": 2,
    "Quantity": 2,
    "Cost": 2,
    "Selling": 2
  }, {
    "Name": "Lid - 0090 Clear",
    "Type": 3,
    "Quantity": 3,
    "Cost": 3,
    "Selling": 3
  }, {
    "Name": "Bread - Rosemary Focaccia",
    "Type": 4,
    "Quantity": 4,
    "Cost": 4,
    "Selling": 4
  }, {
    "Name": "Syrup - Monin, Irish Cream",
    "Type": 5,
    "Quantity": 5,
    "Cost": 5,
    "Selling": 5
  }, {
    "Name": "Prunes - Pitted",
    "Type": 6,
    "Quantity": 6,
    "Cost": 6,
    "Selling": 6
  }, {
    "Name": "Wine - Niagara Peninsula Vqa",
    "Type": 7,
    "Quantity": 7,
    "Cost": 7,
    "Selling": 7
  }, {
    "Name": "Beef - Rib Roast, Capless",
    "Type": 8,
    "Quantity": 8,
    "Cost": 8,
    "Selling": 8
  }, {
    "Name": "Stock - Beef, Brown",
    "Type": 9,
    "Quantity": 9,
    "Cost": 9,
    "Selling": 9
  }, {
    "Name": "Tia Maria",
    "Type": 10,
    "Quantity": 10,
    "Cost": 10,
    "Selling": 10
  }, {
    "Name": "Cake - Lemon Chiffon",
    "Type": 11,
    "Quantity": 11,
    "Cost": 11,
    "Selling": 11
  }, {
    "Name": "Basil - Pesto Sauce",
    "Type": 12,
    "Quantity": 12,
    "Cost": 12,
    "Selling": 12
  }, {
    "Name": "Beef - Prime Rib Aaa",
    "Type": 13,
    "Quantity": 13,
    "Cost": 13,
    "Selling": 13
  }, {
    "Name": "Garbag Bags - Black",
    "Type": 14,
    "Quantity": 14,
    "Cost": 14,
    "Selling": 14
  }, {
    "Name": "Propel Sport Drink",
    "Type": 15,
    "Quantity": 15,
    "Cost": 15,
    "Selling": 15
  }, {
    "Name": "Coffee - Decafenated",
    "Type": 16,
    "Quantity": 16,
    "Cost": 16,
    "Selling": 16
  }, {
    "Name": "Soup - Campbells Chili",
    "Type": 17,
    "Quantity": 17,
    "Cost": 17,
    "Selling": 17
  }, {
    "Name": "Clam - Cherrystone",
    "Type": 18,
    "Quantity": 18,
    "Cost": 18,
    "Selling": 18
  }, {
    "Name": "Containter - 3oz Microwave Rect.",
    "Type": 19,
    "Quantity": 19,
    "Cost": 19,
    "Selling": 19
  }, {
    "Name": "Coconut - Shredded, Unsweet",
    "Type": 20,
    "Quantity": 20,
    "Cost": 20,
    "Selling": 20
  }, {
    "Name": "Cakes Assorted",
    "Type": 21,
    "Quantity": 21,
    "Cost": 21,
    "Selling": 21
  }, {
    "Name": "Wine - Red, Pinot Noir, Chateau",
    "Type": 22,
    "Quantity": 22,
    "Cost": 22,
    "Selling": 22
  }, {
    "Name": "Lemonade - Pineapple Passion",
    "Type": 23,
    "Quantity": 23,
    "Cost": 23,
    "Selling": 23
  }, {
    "Name": "Mayonnaise",
    "Type": 24,
    "Quantity": 24,
    "Cost": 24,
    "Selling": 24
  }, {
    "Name": "Energy Drink - Franks Pineapple",
    "Type": 25,
    "Quantity": 25,
    "Cost": 25,
    "Selling": 25
  }, {
    "Name": "Otomegusa Dashi Konbu",
    "Type": 26,
    "Quantity": 26,
    "Cost": 26,
    "Selling": 26
  }, {
    "Name": "Fish - Base, Bouillion",
    "Type": 27,
    "Quantity": 27,
    "Cost": 27,
    "Selling": 27
  }, {
    "Name": "Pepper - Gypsy Pepper",
    "Type": 28,
    "Quantity": 28,
    "Cost": 28,
    "Selling": 28
  }, {
    "Name": "Scallops - In Shell",
    "Type": 29,
    "Quantity": 29,
    "Cost": 29,
    "Selling": 29
  }, {
    "Name": "Garbage Bags - Black",
    "Type": 30,
    "Quantity": 30,
    "Cost": 30,
    "Selling": 30
  }, {
    "Name": "Table Cloth 54x72 White",
    "Type": 31,
    "Quantity": 31,
    "Cost": 31,
    "Selling": 31
  }, {
    "Name": "Broom - Corn",
    "Type": 32,
    "Quantity": 32,
    "Cost": 32,
    "Selling": 32
  }, {
    "Name": "Salmon Steak - Cohoe 6 Oz",
    "Type": 33,
    "Quantity": 33,
    "Cost": 33,
    "Selling": 33
  }, {
    "Name": "Vodka - Moskovskaya",
    "Type": 34,
    "Quantity": 34,
    "Cost": 34,
    "Selling": 34
  }, {
    "Name": "Cookie Dough - Chunky",
    "Type": 35,
    "Quantity": 35,
    "Cost": 35,
    "Selling": 35
  }, {
    "Name": "Ice Cream Bar - Hageen Daz To",
    "Type": 36,
    "Quantity": 36,
    "Cost": 36,
    "Selling": 36
  }, {
    "Name": "Water - Perrier",
    "Type": 37,
    "Quantity": 37,
    "Cost": 37,
    "Selling": 37
  }, {
    "Name": "Venison - Racks Frenched",
    "Type": 38,
    "Quantity": 38,
    "Cost": 38,
    "Selling": 38
  }, {
    "Name": "Petite Baguette",
    "Type": 39,
    "Quantity": 39,
    "Cost": 39,
    "Selling": 39
  }, {
    "Name": "Ice Cream Bar - Rolo Cone",
    "Type": 40,
    "Quantity": 40,
    "Cost": 40,
    "Selling": 40
  }, {
    "Name": "Beef - Top Sirloin - Aaa",
    "Type": 41,
    "Quantity": 41,
    "Cost": 41,
    "Selling": 41
  }, {
    "Name": "Asparagus - White, Fresh",
    "Type": 42,
    "Quantity": 42,
    "Cost": 42,
    "Selling": 42
  }, {
    "Name": "Puree - Strawberry",
    "Type": 43,
    "Quantity": 43,
    "Cost": 43,
    "Selling": 43
  }, {
    "Name": "Muffin Mix - Carrot",
    "Type": 44,
    "Quantity": 44,
    "Cost": 44,
    "Selling": 44
  }, {
    "Name": "Nut - Peanut, Roasted",
    "Type": 45,
    "Quantity": 45,
    "Cost": 45,
    "Selling": 45
  }, {
    "Name": "Muffin Mix - Carrot",
    "Type": 46,
    "Quantity": 46,
    "Cost": 46,
    "Selling": 46
  }, {
    "Name": "Star Anise, Whole",
    "Type": 47,
    "Quantity": 47,
    "Cost": 47,
    "Selling": 47
  }, {
    "Name": "Thyme - Fresh",
    "Type": 48,
    "Quantity": 48,
    "Cost": 48,
    "Selling": 48
  }, {
    "Name": "Pie Filling - Pumpkin",
    "Type": 49,
    "Quantity": 49,
    "Cost": 49,
    "Selling": 49
  }, {
    "Name": "Edible Flower - Mixed",
    "Type": 50,
    "Quantity": 50,
    "Cost": 50,
    "Selling": 50
  }]